# TiMOS-B-12.0.R6 both/i386 ALCATEL SR 7750 Copyright (c) 2000-2014 Alcatel-Lucent.
# All rights reserved. All use subject to applicable license agreements.
# Built on Tue Sep 30 11:10:17 PDT 2014 by builder in /rel12.0/b1/R6/panos/main

# Generated 

exit all
configure
#--------------------------------------------------
echo "System Configuration"
#--------------------------------------------------
    system
        dns
        exit
        snmp
        exit
        time
            sntp
                shutdown
            exit
            zone UTC 
        exit
        thresholds                    
            rmon
            exit
        exit
    exit
#--------------------------------------------------
echo "System Security Configuration"
#--------------------------------------------------
    system
        security
            no per-peer-queuing
            cpu-protection
                link-specific-rate max
                policy 254 create
                exit
                policy 255 create
                exit
                port-overall-rate 15000 
            exit
        exit
    exit
#--------------------------------------------------
echo "Log Configuration"
#--------------------------------------------------
    log 
    exit 
#--------------------------------------------------
echo "System Security Cpm Hw Filters and PKI Configuration"
#--------------------------------------------------
    system
        security
        exit
    exit
#--------------------------------------------------
echo "QoS Policy Configuration"
#--------------------------------------------------
    qos
    exit
#--------------------------------------------------
echo "Card Configuration"
#--------------------------------------------------
    card 1
        card-type iom3-xp-b
        mda 1
            mda-type m5-1gb-sfp-b
            no shutdown
        exit                          
        no shutdown
    exit
#--------------------------------------------------
echo "Port Configuration"
#--------------------------------------------------
    port 1/1/1
        ethernet
        exit
        no shutdown
    exit
    port 1/1/2
        ethernet
        exit
        no shutdown
    exit
    port 1/1/3
        shutdown
        ethernet
        exit
    exit
    port 1/1/4
        shutdown
        ethernet                      
        exit
    exit
    port 1/1/5
        shutdown
        ethernet
        exit
    exit
#--------------------------------------------------
echo "System Sync-If-Timing Configuration"
#--------------------------------------------------
    system
        sync-if-timing
            begin
            commit
        exit
    exit
#--------------------------------------------------
echo "Management Router Configuration"
#--------------------------------------------------
    router management
    exit

#--------------------------------------------------
echo "Router (Network Side) Configuration"
#--------------------------------------------------
    router 
        interface "lo1"
            address 2.2.2.2/32
            loopback
            no shutdown
        exit
        interface "lo2"
            address 2.2.2.22/32
            loopback
            no shutdown
        exit
        interface "system"
            address 20.20.20.2/32
            no shutdown
        exit
        interface "toR1"
            address 192.168.1.2/24
            port 1/1/1
            no shutdown
        exit
        interface "toR4"              
            address 192.168.3.1/24
            port 1/1/2
            no shutdown
        exit
#--------------------------------------------------
echo "OSPFv2 Configuration"
#--------------------------------------------------
        ospf 2.2.2.22
            area 0.0.0.0
                interface "lo1"
                    no shutdown
                exit
                interface "lo2"
                    no shutdown
                exit
                interface "toR1"
                    interface-type point-to-point
                    hello-interval 2
                    dead-interval 10
                    no shutdown
                exit
                interface "toR4"
                    interface-type point-to-point
                    hello-interval 2
                    dead-interval 10
                    no shutdown
                exit
            exit
        exit
#--------------------------------------------------
echo "Web Portal Protocol Configuration"
#--------------------------------------------------
    exit

#--------------------------------------------------
echo "Service Configuration"
#--------------------------------------------------
    service
        customer 1 create
            description "Default customer"
        exit
    exit
#--------------------------------------------------
echo "Router (Service Side) Configuration"
#--------------------------------------------------
    router                            
#--------------------------------------------------
echo "OSPFv2 Configuration"
#--------------------------------------------------
        ospf 2.2.2.22
        exit
#--------------------------------------------------
echo "WLAN Gateway Configuration"
#--------------------------------------------------
    exit


exit all

# Finished 